{
  "project_info": {
    "project_number": "4575173328",
    "firebase_url": "https://callrecorder-f11e2.firebaseio.com",
    "project_id": "callrecorder-f11e2",
    "storage_bucket": "callrecorder-f11e2.appspot.com"
  },
  "client": [
    {
      "client_info": {
        "mobilesdk_app_id": "1:4575173328:android:7e4f0a0e192b7d00",
        "android_client_info": {
          "package_name": "com.example.callrecorder.prime.indiacallrecorder"
        }
      },
      "oauth_client": [
        {
          "client_id": "4575173328-q7hegqumvcdb30d1pf28asqufgh27h9b.apps.googleusercontent.com",
          "client_type": 3
        }
      ],
      "api_key": [
        {
          "current_key": "AIzaSyCPyq9CqAxrnwENeOq1lb9QVtmHLgfHzYU"
        }
      ],
      "services": {
        "analytics_service": {
          "status": 1
        },
        "appinvite_service": {
          "status": 1,
          "other_platform_oauth_client": []
        },
        "ads_service": {
          "status": 2
        }
      }
    }
  ],
  "configuration_version": "1"
}